<svg width="500" height="320" viewBox="0 0 500 320" fill="none" xmlns="http://www.w3.org/2000/svg">
<g clip-path="url(#clip0)">
<path d="M291.207 0H54.7207V309.685H291.207V0Z" fill="#E6E6E6"/>
<path d="M277.13 16.0474H68.7969V72.3537H277.13V16.0474Z" fill="white"/>
<path d="M276.567 91.4976H147.062V294.2H276.567V91.4976Z" fill="white"/>
<path d="M209.888 37.0864H157.285V41.0402H209.888V37.0864Z" fill="#E6E6E6"/>
<path d="M216.449 47.3608H150.248V51.3146H216.449V47.3608Z" fill="#E6E6E6"/>
<path d="M235.791 138.274H183.188V142.228H235.791V138.274Z" fill="#E6E6E6"/>
<path d="M264.418 149.881H183.188V153.835H264.418V149.881Z" fill="#205072"/>
<path d="M250.232 160.935H184.031V164.889H250.232V160.935Z" fill="#E6E6E6"/>
<path d="M221.835 173.064H183.188V177.018H221.835V173.064Z" fill="#E6E6E6"/>
<path d="M241.516 184.912H183.188V188.865H241.516V184.912Z" fill="#205072"/>
<path d="M165.65 137.031H159.209V143.472H165.65V137.031Z" fill="#E6E6E6"/>
<path d="M165.65 148.638H159.209V155.079H165.65V148.638Z" fill="#205072"/>
<path d="M165.65 159.692H159.209V166.133H165.65V159.692Z" fill="#E6E6E6"/>
<path d="M165.65 171.82H159.209V178.262H165.65V171.82Z" fill="#E6E6E6"/>
<path d="M165.65 183.668H159.209V190.109H165.65V183.668Z" fill="#205072"/>
<path d="M235.791 196.833H183.188V200.787H235.791V196.833Z" fill="#E6E6E6"/>
<path d="M264.418 208.44H183.188V212.394H264.418V208.44Z" fill="#205072"/>
<path d="M250.232 219.494H184.031V223.447H250.232V219.494Z" fill="#E6E6E6"/>
<path d="M221.835 231.623H183.188V235.577H221.835V231.623Z" fill="#E6E6E6"/>
<path d="M241.516 243.47H183.188V247.424H241.516V243.47Z" fill="#E6E6E6"/>
<path d="M165.65 195.589H159.209V202.031H165.65V195.589Z" fill="#E6E6E6"/>
<path d="M165.65 207.196H159.209V213.637H165.65V207.196Z" fill="#205072"/>
<path d="M165.65 218.25H159.209V224.692H165.65V218.25Z" fill="#E6E6E6"/>
<path d="M165.65 230.379H159.209V236.82H165.65V230.379Z" fill="#E6E6E6"/>
<path d="M165.65 242.227H159.209V248.668H165.65V242.227Z" fill="#E6E6E6"/>
<path d="M103.077 27.4609C99.7665 27.4609 96.5301 28.4427 93.7773 30.282C91.0246 32.1214 88.8791 34.7357 87.6121 37.7944C86.3452 40.8531 86.0136 44.2188 86.6595 47.4659C87.3054 50.713 88.8997 53.6957 91.2407 56.0367C93.5818 58.3777 96.5644 59.972 99.8115 60.6179C103.059 61.2638 106.424 60.9323 109.483 59.6653C112.542 58.3984 115.156 56.2529 116.995 53.5001C118.835 50.7473 119.817 47.511 119.817 44.2002C119.804 39.7647 118.036 35.5145 114.899 32.3781C111.763 29.2417 107.513 27.4739 103.077 27.4609ZM103.077 32.4827C104.07 32.4827 105.041 32.7773 105.867 33.3291C106.693 33.8809 107.337 34.6652 107.717 35.5828C108.097 36.5004 108.196 37.5101 108.003 38.4842C107.809 39.4584 107.33 40.3532 106.628 41.0555C105.926 41.7578 105.031 42.2361 104.057 42.4298C103.083 42.6236 102.073 42.5242 101.155 42.1441C100.238 41.764 99.4535 41.1203 98.9017 40.2945C98.3499 39.4687 98.0554 38.4977 98.0554 37.5045C98.0599 36.174 98.5904 34.8993 99.5312 33.9585C100.472 33.0177 101.747 32.4872 103.077 32.4827ZM103.077 56.6582C101.093 56.6491 99.1418 56.1562 97.3916 55.2222C95.6414 54.2882 94.1455 52.9413 93.0336 51.2984C93.1141 47.9505 99.7293 46.1076 103.077 46.1076C106.425 46.1076 113.04 47.9505 113.121 51.2984C112.008 52.9401 110.511 54.286 108.762 55.2199C107.012 56.1537 105.061 56.6474 103.077 56.6582Z" fill="#205072"/>
<path d="M500 309.01H0V310.271H500V309.01Z" fill="#3F3D56"/>
<path d="M403.677 95.0708C403.677 95.0708 409.392 107.136 413.203 108.406L402.407 124.917L393.517 114.121C393.517 114.121 394.152 106.501 392.247 103.326C390.342 100.151 403.677 95.0708 403.677 95.0708Z" fill="#FBBEBE"/>
<path d="M394.786 105.866C401.45 105.866 406.851 100.464 406.851 93.8002C406.851 87.1367 401.45 81.7349 394.786 81.7349C388.123 81.7349 382.721 87.1367 382.721 93.8002C382.721 100.464 388.123 105.866 394.786 105.866Z" fill="#FBBEBE"/>
<path d="M378.275 180.164L381.45 189.054L385.261 184.609L382.063 174.482L378.275 180.164Z" fill="#FBBEBE"/>
<path d="M387.165 175.718C387.165 175.718 383.355 191.594 385.26 199.214C387.165 206.834 392.88 258.906 392.88 258.906L396.69 300.182L411.931 301.452L410.026 253.191L411.931 211.279L422.726 251.921V301.452L441.142 302.087L439.237 237.95C439.237 237.95 440.507 188.419 432.252 182.068C423.996 175.718 422.726 174.448 422.726 174.448L387.165 175.718Z" fill="#2F2E41"/>
<path d="M399.866 299.547L398.596 303.992L396.691 309.707C396.691 309.707 390.975 321.138 400.501 319.233C410.026 317.327 408.756 312.882 408.756 312.882C408.756 312.882 411.931 310.977 411.296 310.342C410.661 309.707 410.661 300.182 410.661 300.182L399.866 299.547Z" fill="#2F2E41"/>
<path d="M436.698 299.547L437.968 303.992L439.873 309.707C439.873 309.707 445.588 321.138 436.063 319.233C426.538 317.327 427.808 312.882 427.808 312.882C427.808 312.882 424.633 310.977 425.268 310.342C425.903 309.707 425.903 300.182 425.903 300.182L436.698 299.547Z" fill="#2F2E41"/>
<path d="M402.406 117.296L410.172 105.866L424.631 113.486L426.536 179.528C426.536 179.528 418.281 174.448 405.581 180.798C392.88 187.148 384.625 182.703 384.625 182.703L392.245 154.127L389.07 116.026L393.611 111.904L402.406 117.296Z" fill="#E6E6E6"/>
<path d="M393.614 110.702L390.976 112.851C390.976 112.851 374.465 121.106 373.83 126.821L385.26 157.937C385.26 157.937 388.436 164.922 385.896 167.463C383.355 170.003 380.815 176.353 381.45 179.528C382.085 182.703 377.64 196.038 382.72 196.038C387.801 196.038 399.866 165.557 399.231 153.492C398.596 141.427 398.156 109.823 393.614 110.702Z" fill="#2F2E41"/>
<path d="M379.544 123.011L375.63 123.43C375.63 123.43 371.924 126.186 371.924 132.537C371.924 138.887 371.289 157.937 371.289 157.937C371.289 157.937 370.019 167.463 373.829 174.448C377.639 181.433 378.274 183.338 378.274 183.338L384.625 175.718V159.842L387.165 149.682L379.544 123.011Z" fill="#2F2E41"/>
<path d="M408.263 103.253L414.47 105.866C414.47 105.866 436.061 111.581 439.236 121.106L430.346 143.332C430.346 143.332 436.696 183.973 434.791 183.973H432.886C432.886 183.973 437.966 187.783 434.791 189.053C431.616 190.323 423.996 200.484 422.091 196.038C420.186 191.593 408.755 138.887 410.025 127.456C411.295 116.026 407.135 104.45 408.263 103.253Z" fill="#2F2E41"/>
<path d="M399.549 78.2423V76.9722H396.374C396.374 76.9722 391.294 73.7971 386.849 77.6072C382.404 81.4174 380.499 83.3224 380.499 83.3224L378.594 85.8625L380.499 86.4975L378.594 88.4026H380.499L379.229 90.3076L382.788 95.0703C382.788 95.0703 382.404 90.3076 386.214 90.3076C390.024 90.3076 394.469 85.2275 394.469 85.2275L403.994 92.2127C403.994 92.2127 403.359 88.4205 405.582 88.4115C405.582 88.4115 406.535 78.8773 399.549 78.2423Z" fill="#2F2E41"/>
<path d="M443.682 180.163L442.412 193.498C442.412 193.498 442.412 213.184 435.427 211.279C428.442 209.374 434.157 192.863 434.157 192.863L435.122 180.921L443.682 180.163Z" fill="#FBBEBE"/>
<path d="M429.713 117.931C429.713 117.931 437.969 114.756 440.509 124.281C443.049 133.806 446.224 152.857 446.224 152.857C448.878 159.59 448.878 167.079 446.224 173.813L444.319 183.338L433.524 182.068L430.983 160.477L428.443 133.171L429.713 117.931Z" fill="#2F2E41"/>
</g>
<defs>
<clipPath id="clip0">
<rect width="500" height="319.447" fill="white"/>
</clipPath>
</defs>
</svg>
